<svg width="20" height="45" viewBox="0 0 40 45" fill="none" xmlns="http://www.w3.org/2000/svg">
<path d="M38.8667 20.538L3.31111 0.288086C2.62222 -0.103414 1.78222 -0.0944135 1.10222 0.306086C0.417778 0.711085 0 1.44908 0 2.25008V42.75C0 43.551 0.417778 44.289 1.10222 44.694C1.44889 44.8965 1.83556 45 2.22222 45C2.59556 45 2.97333 44.9055 3.31111 44.712L38.8667 24.462C39.5644 24.0615 40 23.3145 40 22.5C40 21.6855 39.5644 20.9385 38.8667 20.538Z" fill="#5F6368"/>
</svg>
